#,TÝM,Z,V,VP,PP,P,SKÓRE,B,SB,SP,PŘ,GPŘ,VPŘ,OS,OGOS,UOS,VGOS,VV,H,T
1,Vegas Golden Knights,57,29,9,4,15,196:155,80,32.91,30.35,174,38,21.84,160,30,81.25,4,45.72,1083,395
2,San Jose Sharks,58,24,7,8,19,170:159,70,33.07,30.38,174,44,25.29,156,27,82.69,6,48.62,980,494
3,Anaheim Ducks,60,23,6,11,20,167:170,69,30.57,33.53,141,29,20.57,200,40,80.00,7,45.00,1457,647
4,Calgary Flames,58,21,9,8,20,165:167,68,32.86,32.24,169,34,20.12,166,39,76.51,3,45.34,1103,630
5,Los Angeles Kings,58,23,8,5,22,167:145,67,31.02,31.55,148,32,21.62,184,33,82.07,3,46.13,1465,588
6,Vancouver Canucks,58,19,3,6,30,151:188,50,30.1,32.03,179,40,22.35,181,42,76.80,5,44.44,1130,518
7,Edmonton Oilers,56,16,7,4,29,158:188,50,33.86,30.96,136,22,16.18,157,51,67.52,7,48.36,1507,567
8,Arizona Coyotes,58,8,8,10,32,142:197,42,29.69,32.21,155,31,20.00,134,32,76.12,2,43.34,1420,432